CellLine,Clone,RowNo,ReplicateNo,Conc1,Conc0.1,Conc0.01,Conc0.001,Conc0.0001,Conc0.00001,Conc0.000001,Conc0.0000001,Conc0,ConcMedia
BC3,Parent,A,1,7,325,2308,20542,47711,32095,55504,58549,59287,3
BC3,Parent,B,1,8,426,2636,34833,57499,59906,52397,51568,57091,5
BC3,Parent,C,1,8,483,2598,34079,27071,62881,60532,56624,57644,6
BC3,Parent,D,1,5,320,2030,37147,49116,53545,51994,58501,57612,2
BC3,Parent,E,1,3,299,3754,44192,30181,51221,58322,57278,62346,0
BC3,Parent,F,1,0,517,1494,26648,68801,66637,63437,68405,59864,6
BC3,Parent,A,2,3,52,1369,44425,50468,43949,65595,69553,58523,5
BC3,Parent,B,2,3,50,2973,35144,57585,54857,60480,55978,62839,6
BC3,Parent,C,2,4,122,3341,38464,28577,53101,55572,57527,57769,2
BC3,Parent,D,2,6,67,2336,39380,51667,50470,50350,60380,60068,2
BC3,Parent,E,2,1,175,1308,31075,26613,50419,56307,58944,61822,0
BC3,Parent,F,2,1,176,3536,37661,44710,50777,59410,56027,55522,1
BC3,Parent,A,3,0,232,2404,34565,37722,49604,63546,51398,57528,8
BC3,Parent,B,3,7,152,2698,34371,56285,59427,63173,55126,61909,7
BC3,Parent,C,3,6,69,2233,28561,33603,47949,58524,59478,66719,4
BC3,Parent,D,3,0,155,2379,33982,44118,38754,57769,56761,59475,4
BC3,Parent,E,3,5,230,2541,30261,43620,51191,52173,57558,65146,5
BC3,Parent,F,3,4,100,2327,31085,40116,37719,59196,58328,62631,4
BC3,Sorted,A,1,4,162,14751,31728,55288,58886,65067,70003,76799,1
BC3,Sorted,B,1,23,168,13406,41351,57543,55251,58237,68060,75581,2
BC3,Sorted,C,1,0,190,12259,32880,34702,56055,59797,68604,82993,1
BC3,Sorted,D,1,2,160,10632,39995,44113,60596,56802,73591,82423,0
BC3,Sorted,E,1,0,342,25300,47870,49644,54441,61933,68842,77977,2
BC3,Sorted,F,1,0,427,17569,32825,60980,57266,77530,71957,77973,3
BC3,Sorted,A,2,7,172,15408,38991,42691,57392,61917,70206,65426,3
BC3,Sorted,B,2,11,196,13393,31812,59617,54467,62382,61399,63633,0
BC3,Sorted,C,2,50,315,18228,46022,32061,60491,55594,76306,84227,0
BC3,Sorted,D,2,0,342,13130,46853,29018,54635,67905,65491,60180,3
BC3,Sorted,E,2,0,87,12590,37631,34413,60757,77997,77810,89892,2
BC3,Sorted,F,2,0,359,27473,35475,68955,61180,65072,67819,72433,0
BC3,Sorted,A,3,60,310,18985,37504,64392,56497,54389,60449,60777,3
BC3,Sorted,B,3,23,335,14098,37198,65118,61349,68431,76709,74821,0
BC3,Sorted,C,3,45,267,18929,26159,35753,60657,60882,73398,86162,4
BC3,Sorted,D,3,43,255,11818,25865,59077,60409,69192,72405,85326,1
BC3,Sorted,E,3,35,211,21046,20146,62590,59241,79731,81363,70483,4
BC3,Sorted,F,3,5,236,20288,29344,45069,55183,69216,66577,83814,5
BC3,G418,A,1,0,85,3567,24712,37391,42403,42400,35286,52121,5
BC3,G418,B,1,0,107,3928,23093,30855,39537,44156,41767,48101,8
BC3,G418,C,1,9,162,3567,25878,37711,45362,46155,46549,47831,8
BC3,G418,D,1,9,180,3069,26523,42307,41681,44946,37854,48262,9
BC3,G418,E,1,0,208,3933,24250,36423,38652,34179,46538,42569,3
BC3,G418,F,1,0,66,3390,27475,39465,34749,38169,32158,43575,7
BC3,G418,A,2,0,102,4912,29995,36496,39821,45727,43090,55419,8
BC3,G418,B,2,14,247,3807,29062,20153,39700,42438,42627,48149,9
BC3,G418,C,2,41,179,3116,28276,36412,39106,41199,41622,49638,2
BC3,G418,D,2,0,126,4294,25704,27424,35764,43086,42458,49605,9
BC3,G418,E,2,0,319,3232,23626,43338,42952,47267,49887,51536,5
BC3,G418,F,2,0,84,3807,22761,33942,42768,51430,47845,50933,8
BC3,G418,A,3,17,127,3385,24052,37147,42166,50274,42364,59531,6
BC3,G418,B,3,4,140,3890,29738,29542,47556,33672,44051,58820,1
BC3,G418,C,3,9,103,3880,24793,31191,43783,54275,40274,53413,1
BC3,G418,D,3,4,441,2152,26721,36007,47052,48421,44224,53577,2
BC3,G418,E,3,5,395,2418,28590,32991,41897,47166,43789,57900,3
BC3,G418,F,3,0,380,1722,25073,32667,44234,48114,49825,52516,4
BC3,Unsorted,A,1,9,117,1617,22355,23643,40089,40237,41715,58120,8
BC3,Unsorted,B,1,0,169,1263,29896,25230,36401,40863,48623,44486,5
BC3,Unsorted,C,1,0,132,1285,23584,38990,41112,41725,42267,54118,7
BC3,Unsorted,D,1,25,136,1197,22558,25707,40605,42009,54880,43750,3
BC3,Unsorted,E,1,0,79,2412,32420,46350,46765,42334,55928,51274,4
BC3,Unsorted,F,1,0,57,1862,31134,37337,43200,47163,49601,50279,1
BC3,Unsorted,A,2,0,79,4177,25586,33969,36411,47882,47679,50255,4
BC3,Unsorted,B,2,8,135,1148,34914,38627,36532,48239,45600,45140,6
BC3,Unsorted,C,2,6,291,4071,32310,34883,34895,47872,59417,43918,6
BC3,Unsorted,D,2,0,157,3643,24975,33566,31552,45768,58928,44668,3
BC3,Unsorted,E,2,0,68,2899,18905,37922,41276,48934,45519,58586,9
BC3,Unsorted,F,2,0,10,1605,38320,32637,40899,56089,48342,58729,9
BC3,Unsorted,A,3,5,140,2201,21726,38772,42710,42132,41195,52445,8
BC3,Unsorted,B,3,12,263,1877,21758,32492,45782,43218,49513,50639,4
BC3,Unsorted,C,3,18,146,2995,34376,38086,45645,44138,57090,58939,4
BC3,Unsorted,D,3,13,23,2452,37068,39278,42687,48857,46311,54548,8
BC3,Unsorted,E,3,6,91,3394,26045,36102,30334,44011,49778,59861,6
BC3,Unsorted,F,3,0,41,2859,20966,31901,23114,59307,52654,58771,2
CRO3,Parent,A,1,0,1572,5538,6692,7455,8979,10326,17619,28021,1
CRO3,Parent,B,1,1,1313,5937,5884,9018,9860,10679,18535,29134,0
CRO3,Parent,C,1,0,1459,4584,7600,7271,8253,10001,16087,28514,2
CRO3,Parent,D,1,0,1789,4735,6110,8352,8474,10772,17630,28779,5
CRO3,Parent,E,1,10,1576,5727,6786,6321,8315,10261,17301,28066,0
CRO3,Parent,F,1,0,951,3878,5342,5736,9071,10002,15750,24803,4
CRO3,Parent,A,2,0,1365,5989,7276,7452,9381,10164,15795,25742,6
CRO3,Parent,B,2,2,1514,5890,6838,7320,9450,10334,18683,27584,1
CRO3,Parent,C,2,0,1618,5424,5907,8355,8783,10205,16658,25257,0
CRO3,Parent,D,2,13,1418,5708,5122,6180,9146,10310,16407,26177,3
CRO3,Parent,E,2,0,1632,4112,6397,8655,8738,10211,16122,25893,1
CRO3,Parent,F,2,0,1140,3092,3826,8673,8974,11023,18255,25256,3
CRO3,Parent,A,3,0,1179,5084,7989,9299,9533,9819,16150,27735,4
CRO3,Parent,B,3,0,1353,4821,5101,9142,9227,10887,18767,28453,7
CRO3,Parent,C,3,7,1575,5292,6390,7509,9442,10476,16461,28149,2
CRO3,Parent,D,3,12,1779,5998,6642,9945,9638,9286,14900,27758,1
CRO3,Parent,E,3,0,1458,4161,7491,6170,7682,10531,16818,26231,0
CRO3,Parent,F,3,0,1927,5840,6969,7037,7227,9377,18875,27810,4
CRO3,Sorted,A,1,83,5882,15088,23411,19493,16126,20121,27587,36893,0
CRO3,Sorted,B,1,62,5957,15069,16003,19315,17903,20550,24674,28289,0
CRO3,Sorted,C,1,19,5718,14233,17611,20430,14876,19980,25762,35402,1
CRO3,Sorted,D,1,91,7071,17081,17628,19830,12676,19456,33270,34406,3
CRO3,Sorted,E,1,88,7822,13489,18139,20073,15736,20342,25394,33846,5
CRO3,Sorted,F,1,22,5791,17711,16642,20473,17400,20733,33819,29129,0
CRO3,Sorted,A,2,143,5395,13463,17222,19270,14270,19750,31646,29471,0
CRO3,Sorted,B,2,151,6157,14365,18978,20610,11389,19505,30181,34358,0
CRO3,Sorted,C,2,70,4353,12560,18360,18190,12887,20024,30373,33776,0
CRO3,Sorted,D,2,131,4605,11680,17289,19545,13346,20013,22531,27983,3
CRO3,Sorted,E,2,110,4850,13960,18944,18635,10298,19439,23392,33839,0
CRO3,Sorted,F,2,161,4851,12274,16177,18061,11779,19797,30434,33317,0
CRO3,Sorted,A,3,103,5553,15837,20231,19207,19145,19820,25928,30151,0
CRO3,Sorted,B,3,138,5737,13745,16014,19414,15020,19992,32435,34852,0
CRO3,Sorted,C,3,157,5029,15821,16628,19898,11747,19658,32392,25690,0
CRO3,Sorted,D,3,137,6310,16965,16805,20278,12660,19065,30757,25136,8
CRO3,Sorted,E,3,155,7144,16130,16156,19387,12818,19927,26793,25395,3
CRO3,Sorted,F,3,122,7359,15651,17913,20668,20690,20936,23092,28506,0
CRO3,G418,A,1,66,1293,4788,4225,8836,7700,10786,15218,29518,9
CRO3,G418,B,1,11,1004,4412,6310,9977,9263,12105,16385,26283,7
CRO3,G418,C,1,49,1859,5187,5162,7782,9666,10615,16686,20928,7
CRO3,G418,D,1,21,1960,4221,3493,6361,9282,10851,17021,24487,2
CRO3,G418,E,1,21,1176,4339,6871,6455,9160,10686,16004,24644,0
CRO3,G418,F,1,21,1588,5554,4353,9641,7244,10146,17262,29614,3
CRO3,G418,A,2,0,1448,5068,5404,8065,9402,10042,15900,29296,6
CRO3,G418,B,2,75,1953,4940,6239,7674,9041,10065,16635,21420,6
CRO3,G418,C,2,18,1674,5264,6151,7784,9997,10336,17819,24532,3
CRO3,G418,D,2,53,1886,4549,7118,8282,9364,10651,19635,22036,5
CRO3,G418,E,2,41,1758,4409,5469,7113,8510,11882,17556,25447,4
CRO3,G418,F,2,33,1310,4652,7677,7995,7671,11409,19567,21167,6
CRO3,G418,A,3,7,1791,4104,4730,6271,9300,10834,15251,23838,0
CRO3,G418,B,3,0,1666,4024,6815,7377,9370,11559,19990,26730,3
CRO3,G418,C,3,0,1415,5218,6499,8273,9320,11020,15757,21396,0
CRO3,G418,D,3,77,1161,5785,6649,8354,8388,10188,17597,29489,1
CRO3,G418,E,3,10,1893,5648,6102,7750,8855,11203,16647,21530,6
CRO3,G418,F,3,30,1649,4425,5013,7877,9932,10967,19315,21120,2
CRO3,Unsorted,A,1,0,1439,4066,6257,9937,9257,10576,18861,20183,0
CRO3,Unsorted,B,1,26,1402,4850,7442,8849,9635,11645,19999,20619,1
CRO3,Unsorted,C,1,12,1313,4348,5761,6966,8430,11192,19897,22269,2
CRO3,Unsorted,D,1,0,1243,5763,4879,8603,9198,11451,19769,28092,6
CRO3,Unsorted,E,1,48,1311,4986,6681,9474,8122,10771,16281,22368,3
CRO3,Unsorted,F,1,21,1334,4674,6336,8041,7916,10433,18664,20746,6
CRO3,Unsorted,A,2,21,1741,5539,5245,6946,8883,10234,18953,21605,7
CRO3,Unsorted,B,2,0,1542,5156,5868,9670,8284,10961,18892,22362,5
CRO3,Unsorted,C,2,80,1969,4923,6488,9858,8016,11646,16915,23626,0
CRO3,Unsorted,D,2,0,1605,4498,5395,8415,9711,11322,15202,27102,0
CRO3,Unsorted,E,2,0,1228,5639,6698,8382,7969,10159,19254,24535,3
CRO3,Unsorted,F,2,22,1409,5201,6862,8693,90240,10862,18504,21108,0
CRO3,Unsorted,A,3,32,1363,4919,6750,8472,8345,11091,19506,21245,5
CRO3,Unsorted,B,3,37,1045,4969,6341,8012,7175,11474,18760,23940,3
CRO3,Unsorted,C,3,0,1804,4454,6058,7282,9747,10418,19259,21878,4
CRO3,Unsorted,D,3,40,1414,5662,6575,8184,8550,12844,16144,26052,0
CRO3,Unsorted,E,3,66,1843,5208,5048,7576,9039,10802,15942,25883,0
CRO3,Unsorted,F,3,59,1727,4688,6249,8034,9376,10541,18040,27639,3
CRO6,Parent,A,1,0,2561,18346,16662,14925,15586,32553,35132,32024,8
CRO6,Parent,B,1,0,1310,16343,16552,19354,14161,24703,35310,40367,7
CRO6,Parent,C,1,49,2737,14752,15933,19217,17163,29589,30550,35456,6
CRO6,Parent,D,1,85,1883,14103,17955,20650,20125,24535,27955,41358,3
CRO6,Parent,E,1,0,1000,16360,14650,19005,17732,20505,33665,35406,3
CRO6,Parent,F,1,2,2745,16886,18986,17646,25298,28741,29684,35665,5
CRO6,Parent,A,2,24,2077,16161,22019,16680,27271,19410,30789,39980,5
CRO6,Parent,B,2,27,2116,17013,23289,24026,16844,20875,29438,41620,2
CRO6,Parent,C,2,0,2302,16887,23326,19457,20316,23070,29455,39061,5
CRO6,Parent,D,2,62,2000,18334,24653,20764,25934,19890,30916,42072,0
CRO6,Parent,E,2,19,2694,19010,27947,22594,24641,20279,30868,33246,4
CRO6,Parent,F,2,0,1615,24227,26128,23504,22703,24080,32378,37584,0
CRO6,Parent,A,3,8,1925,17646,20448,20165,23072,24716,28252,36533,6
CRO6,Parent,B,3,19,2497,18134,27170,21007,19861,17834,26859,44928,8
CRO6,Parent,C,3,14,2360,19299,26577,22958,24078,24753,27726,33627,6
CRO6,Parent,D,3,60,2247,20737,26847,22852,19646,23029,34035,43092,3
CRO6,Parent,E,3,41,2702,21400,25196,24106,21597,26123,28499,34746,4
CRO6,Parent,F,3,13,2112,19175,26137,26521,22663,20572,32529,41480,0
CRO6,Sorted,A,1,176,2715,21339,28531,33632,32846,35137,41577,55498,5
CRO6,Sorted,B,1,108,4335,29583,24757,44350,30181,42939,41158,49088,8
CRO6,Sorted,C,1,108,3221,21666,29474,32788,30796,37615,43997,50243,5
CRO6,Sorted,D,1,44,2816,21559,23747,27353,31589,37087,49455,41146,7
CRO6,Sorted,E,1,36,3600,21695,31844,39763,33941,44587,45312,47764,8
CRO6,Sorted,F,1,101,3855,23820,30271,30675,31962,35049,46168,47135,5
CRO6,Sorted,A,2,148,4356,29372,22234,32515,35159,36226,44749,47551,4
CRO6,Sorted,B,2,164,5225,27250,23625,28162,32654,36014,46796,55308,7
CRO6,Sorted,C,2,86,4681,29948,24805,22806,32743,35215,44844,48156,6
CRO6,Sorted,D,2,103,4602,20766,22919,24319,33256,41174,42674,55456,7
CRO6,Sorted,E,2,138,5357,21790,29265,28666,37549,41634,42927,49152,1
CRO6,Sorted,F,2,18,4728,29798,26653,29039,32941,44226,40835,48621,2
CRO6,Sorted,A,3,315,4366,21506,24920,26500,30547,38780,41004,46280,8
CRO6,Sorted,B,3,110,3458,22760,26282,22600,31835,37805,41329,46852,1
CRO6,Sorted,C,3,144,3916,29576,31898,20860,32617,36066,41962,47238,3
CRO6,Sorted,D,3,62,3074,20437,32468,23312,31949,41386,48014,54675,2
CRO6,Sorted,E,3,33,2665,22341,26640,37849,36195,43881,40471,50725,2
CRO6,Sorted,F,3,104,3570,28567,29493,32860,37241,42876,46113,47340,4
CRO6,G418,A,1,167,2898,16755,20811,17732,19273,20990,30060,37475,6
CRO6,G418,B,1,45,2377,16664,18860,20714,33331,24866,27630,48759,5
CRO6,G418,C,1,160,2921,20358,19049,20963,24029,21115,33054,40535,2
CRO6,G418,D,1,182,2795,19695,18706,23749,19412,25347,28702,35519,0
CRO6,G418,E,1,82,2919,18814,20094,23198,18222,19171,29859,39097,2
CRO6,G418,F,1,52,2704,17086,17866,22706,29566,21432,35952,41781,3
CRO6,G418,A,2,106,2438,18950,18656,26805,23930,25641,28425,38633,0
CRO6,G418,B,2,146,2373,19159,15002,20350,22448,26227,27820,41950,4
CRO6,G418,C,2,63,2666,18258,20065,22181,20016,18906,30133,38220,0
CRO6,G418,D,2,137,2442,18833,17515,21517,20323,22726,29682,35792,5
CRO6,G418,E,2,126,2496,21408,18332,27702,25720,22153,31691,44875,4
CRO6,G418,F,2,74,2146,20636,21454,21043,23136,25913,22753,36751,0
CRO6,G418,A,3,99,2985,19030,23189,24702,25713,26504,28326,38098,1
CRO6,G418,B,3,209,1582,14562,29005,26140,22434,20782,22512,41263,3
CRO6,G418,C,3,124,2557,18044,20426,23513,22093,22173,31085,38025,3
CRO6,G418,D,3,127,2634,15377,25452,25425,21836,28321,26584,45238,5
CRO6,G418,E,3,84,2393,14288,18309,23308,29929,24848,30731,36398,1
CRO6,G418,F,3,69,1017,18757,22287,23902,23616,26053,32046,43251,5
CRO6,Unsorted,A,1,0,1033,18046,19019,21429,16283,27942,28276,41405,3
CRO6,Unsorted,B,1,0,2782,14958,16823,28750,28409,24204,32749,33846,0
CRO6,Unsorted,C,1,13,1898,18177,14672,26674,26780,23066,26944,35405,6
CRO6,Unsorted,D,1,53,1853,19922,18504,19791,29349,27222,29294,37239,8
CRO6,Unsorted,E,1,29,2847,11039,13284,19603,27869,26730,27383,34930,0
CRO6,Unsorted,F,1,5,2594,19512,20398,21980,27821,29735,27551,43587,6
CRO6,Unsorted,A,2,5,1008,16477,19992,24199,19829,23038,33782,34779,2
CRO6,Unsorted,B,2,20,1195,13887,19970,24409,29530,25154,30729,35184,9
CRO6,Unsorted,C,2,18,2828,15832,18023,21792,21203,22272,32334,36963,12
CRO6,Unsorted,D,2,0,1376,17911,19198,24881,21026,24911,29598,37355,7
CRO6,Unsorted,E,2,13,1228,13288,22582,25953,25769,23982,24002,43709,4
CRO6,Unsorted,F,2,13,2909,13372,19132,22947,25664,24304,24022,39489,0
CRO6,Unsorted,A,3,0,1065,18196,19991,22748,26263,23969,26008,38679,8
CRO6,Unsorted,B,3,15,2853,10823,18038,22655,29977,23709,27689,42144,0
CRO6,Unsorted,C,3,0,2583,10122,19581,21581,29569,21171,27101,38601,9
CRO6,Unsorted,D,3,27,2680,17988,19413,21878,21095,22241,28000,41714,7
CRO6,Unsorted,E,3,0,2904,18314,19991,21895,21476,29910,26590,41593,5
CRO6,Unsorted,F,3,0,2908,19980,19280,22189,20255,26376,32189,30525,0
